%YAML 1.1
%TAG !u! tag:unity3d.com,2011:
--- !u!687078895 &4343727234628468602
SpriteAtlas:
  m_ObjectHideFlags: 0
  m_CorrespondingSourceObject: {fileID: 0}
  m_PrefabInstance: {fileID: 0}
  m_PrefabAsset: {fileID: 0}
  m_Name: Sky
  m_EditorData:
    serializedVersion: 2
    textureSettings:
      serializedVersion: 2
      anisoLevel: 1
      compressionQuality: 50
      maxTextureSize: 2048
      textureCompression: 0
      filterMode: 1
      generateMipMaps: 0
      readable: 0
      crunchedCompression: 0
      sRGB: 1
    platformSettings: []
    packingSettings:
      serializedVersion: 2
      padding: 4
      blockOffset: 1
      allowAlphaSplitting: 0
      enableRotation: 1
      enableTightPacking: 1
    variantMultiplier: 1
    packables:
    - {fileID: 2800000, guid: e3a492e178e6fde4087ef3bdf71f9fc3, type: 3}
    bindAsDefault: 1
  m_MasterAtlas: {fileID: 0}
  m_PackedSprites:
  - {fileID: 1695945245757611590, guid: e3a492e178e6fde4087ef3bdf71f9fc3, type: 3}
  - {fileID: 8177578602818801604, guid: e3a492e178e6fde4087ef3bdf71f9fc3, type: 3}
  - {fileID: 8046343068026520892, guid: e3a492e178e6fde4087ef3bdf71f9fc3, type: 3}
  - {fileID: -1047189554405112432, guid: e3a492e178e6fde4087ef3bdf71f9fc3, type: 3}
  - {fileID: 8559580562194967822, guid: e3a492e178e6fde4087ef3bdf71f9fc3, type: 3}
  - {fileID: -7136469546273365497, guid: e3a492e178e6fde4087ef3bdf71f9fc3, type: 3}
  - {fileID: 6905332416515834804, guid: e3a492e178e6fde4087ef3bdf71f9fc3, type: 3}
  - {fileID: 3359541499703733883, guid: e3a492e178e6fde4087ef3bdf71f9fc3, type: 3}
  m_PackedSpriteNamesToIndex:
  - "\u041E\u0431\u043B\u0430\u043A\u0430_4"
  - "\u041E\u0431\u043B\u0430\u043A\u0430_5"
  - "\u041E\u0431\u043B\u0430\u043A\u0430_6"
  - "\u041E\u0431\u043B\u0430\u043A\u0430_7"
  - "\u041E\u0431\u043B\u0430\u043A\u0430_0"
  - "\u041E\u0431\u043B\u0430\u043A\u0430_1"
  - "\u041E\u0431\u043B\u0430\u043A\u0430_2"
  - "\u041E\u0431\u043B\u0430\u043A\u0430_3"
  m_Tag: Sky
  m_IsVariant: 0
