%YAML 1.1
%TAG !u! tag:unity3d.com,2011:
--- !u!74 &7400000
AnimationClip:
  m_ObjectHideFlags: 0
  m_CorrespondingSourceObject: {fileID: 0}
  m_PrefabInstance: {fileID: 0}
  m_PrefabAsset: {fileID: 0}
  m_Name: Wizard_Menu
  serializedVersion: 6
  m_Legacy: 0
  m_Compressed: 0
  m_UseHighQualityCurve: 1
  m_RotationCurves: []
  m_CompressedRotationCurves: []
  m_EulerCurves: []
  m_PositionCurves: []
  m_ScaleCurves: []
  m_FloatCurves:
  - curve:
      serializedVersion: 2
      m_Curve:
      - serializedVersion: 3
        time: 0
        value: 0
        inSlope: Infinity
        outSlope: Infinity
        tangentMode: 103
        weightedMode: 0
        inWeight: 0
        outWeight: 0
      - serializedVersion: 3
        time: 0.083333336
        value: 0
        inSlope: Infinity
        outSlope: Infinity
        tangentMode: 103
        weightedMode: 0
        inWeight: 0
        outWeight: 0
      - serializedVersion: 3
        time: 0.16666667
        value: 0
        inSlope: Infinity
        outSlope: Infinity
        tangentMode: 103
        weightedMode: 0
        inWeight: 0
        outWeight: 0
      - serializedVersion: 3
        time: 0.25
        value: 0
        inSlope: Infinity
        outSlope: Infinity
        tangentMode: 103
        weightedMode: 0
        inWeight: 0
        outWeight: 0
      - serializedVersion: 3
        time: 0.33333334
        value: 0
        inSlope: Infinity
        outSlope: Infinity
        tangentMode: 103
        weightedMode: 0
        inWeight: 0
        outWeight: 0
      - serializedVersion: 3
        time: 0.41666666
        value: 1
        inSlope: Infinity
        outSlope: Infinity
        tangentMode: 103
        weightedMode: 0
        inWeight: 0
        outWeight: 0
      - serializedVersion: 3
        time: 0.5
        value: 1
        inSlope: Infinity
        outSlope: Infinity
        tangentMode: 103
        weightedMode: 0
        inWeight: 0
        outWeight: 0
      - serializedVersion: 3
        time: 0.5833333
        value: 1
        inSlope: Infinity
        outSlope: Infinity
        tangentMode: 103
        weightedMode: 0
        inWeight: 0
        outWeight: 0
      - serializedVersion: 3
        time: 0.6666667
        value: 1
        inSlope: Infinity
        outSlope: Infinity
        tangentMode: 103
        weightedMode: 0
        inWeight: 0
        outWeight: 0
      - serializedVersion: 3
        time: 0.75
        value: 1
        inSlope: Infinity
        outSlope: Infinity
        tangentMode: 103
        weightedMode: 0
        inWeight: 0
        outWeight: 0
      m_PreInfinity: 2
      m_PostInfinity: 2
      m_RotationOrder: 4
    attribute: m_FlipX
    path: 
    classID: 212
    script: {fileID: 0}
  m_PPtrCurves:
  - curve:
    - time: 0
      value: {fileID: 4746231025256714944, guid: ef6adafd69064e747985bda96b5654fa,
        type: 3}
    - time: 0.083333336
      value: {fileID: 7551030320648496444, guid: ef6adafd69064e747985bda96b5654fa,
        type: 3}
    - time: 0.16666667
      value: {fileID: 18642250695059735, guid: ef6adafd69064e747985bda96b5654fa, type: 3}
    - time: 0.25
      value: {fileID: 7551030320648496444, guid: ef6adafd69064e747985bda96b5654fa,
        type: 3}
    - time: 0.33333334
      value: {fileID: 4746231025256714944, guid: ef6adafd69064e747985bda96b5654fa,
        type: 3}
    - time: 0.41666666
      value: {fileID: 4746231025256714944, guid: ef6adafd69064e747985bda96b5654fa,
        type: 3}
    - time: 0.5
      value: {fileID: 7551030320648496444, guid: ef6adafd69064e747985bda96b5654fa,
        type: 3}
    - time: 0.5833333
      value: {fileID: 18642250695059735, guid: ef6adafd69064e747985bda96b5654fa, type: 3}
    - time: 0.6666667
      value: {fileID: 7551030320648496444, guid: ef6adafd69064e747985bda96b5654fa,
        type: 3}
    - time: 0.75
      value: {fileID: 4746231025256714944, guid: ef6adafd69064e747985bda96b5654fa,
        type: 3}
    attribute: m_Sprite
    path: 
    classID: 212
    script: {fileID: 0}
  - curve:
    - time: 0
      value: {fileID: -8313528695416656424, guid: ef6adafd69064e747985bda96b5654fa,
        type: 3}
    - time: 0.083333336
      value: {fileID: 2525155701506423137, guid: ef6adafd69064e747985bda96b5654fa,
        type: 3}
    - time: 0.16666667
      value: {fileID: 2027514658557705601, guid: ef6adafd69064e747985bda96b5654fa,
        type: 3}
    - time: 0.25
      value: {fileID: -2013832149697793222, guid: ef6adafd69064e747985bda96b5654fa,
        type: 3}
    - time: 0.33333334
      value: {fileID: -1748276851402542035, guid: ef6adafd69064e747985bda96b5654fa,
        type: 3}
    - time: 0.41666666
      value: {fileID: 2525155701506423137, guid: ef6adafd69064e747985bda96b5654fa,
        type: 3}
    - time: 0.5
      value: {fileID: 2027514658557705601, guid: ef6adafd69064e747985bda96b5654fa,
        type: 3}
    - time: 0.5833333
      value: {fileID: -1748276851402542035, guid: ef6adafd69064e747985bda96b5654fa,
        type: 3}
    - time: 0.6666667
      value: {fileID: 2525155701506423137, guid: ef6adafd69064e747985bda96b5654fa,
        type: 3}
    - time: 0.75
      value: {fileID: 2027514658557705601, guid: ef6adafd69064e747985bda96b5654fa,
        type: 3}
    attribute: m_Sprite
    path: "\u043C\u0430\u0433 \u0434\u043B\u044F \u043C\u0435\u043D\u044E_3"
    classID: 212
    script: {fileID: 0}
  - curve:
    - time: 0
      value: {fileID: -6653900151512834774, guid: ef6adafd69064e747985bda96b5654fa,
        type: 3}
    - time: 0.083333336
      value: {fileID: -3717876110592952622, guid: ef6adafd69064e747985bda96b5654fa,
        type: 3}
    - time: 0.16666667
      value: {fileID: 3819951635689494569, guid: ef6adafd69064e747985bda96b5654fa,
        type: 3}
    - time: 0.25
      value: {fileID: -9178980722481822686, guid: ef6adafd69064e747985bda96b5654fa,
        type: 3}
    - time: 0.33333334
      value: {fileID: -2385809584485864214, guid: ef6adafd69064e747985bda96b5654fa,
        type: 3}
    - time: 0.41666666
      value: {fileID: -6653900151512834774, guid: ef6adafd69064e747985bda96b5654fa,
        type: 3}
    - time: 0.5
      value: {fileID: -3717876110592952622, guid: ef6adafd69064e747985bda96b5654fa,
        type: 3}
    - time: 0.5833333
      value: {fileID: 3819951635689494569, guid: ef6adafd69064e747985bda96b5654fa,
        type: 3}
    - time: 0.6666667
      value: {fileID: -2385809584485864214, guid: ef6adafd69064e747985bda96b5654fa,
        type: 3}
    - time: 0.75
      value: {fileID: -9178980722481822686, guid: ef6adafd69064e747985bda96b5654fa,
        type: 3}
    attribute: m_Sprite
    path: "\u043C\u0430\u0433 \u0434\u043B\u044F \u043C\u0435\u043D\u044E_4"
    classID: 212
    script: {fileID: 0}
  m_SampleRate: 60
  m_WrapMode: 0
  m_Bounds:
    m_Center: {x: 0, y: 0, z: 0}
    m_Extent: {x: 0, y: 0, z: 0}
  m_ClipBindingConstant:
    genericBindings:
    - serializedVersion: 2
      path: 0
      attribute: 555744692
      script: {fileID: 0}
      typeID: 212
      customType: 0
      isPPtrCurve: 0
    - serializedVersion: 2
      path: 0
      attribute: 0
      script: {fileID: 0}
      typeID: 212
      customType: 23
      isPPtrCurve: 1
    - serializedVersion: 2
      path: 3562525465
      attribute: 0
      script: {fileID: 0}
      typeID: 212
      customType: 23
      isPPtrCurve: 1
    - serializedVersion: 2
      path: 1244874426
      attribute: 0
      script: {fileID: 0}
      typeID: 212
      customType: 23
      isPPtrCurve: 1
    pptrCurveMapping:
    - {fileID: 4746231025256714944, guid: ef6adafd69064e747985bda96b5654fa, type: 3}
    - {fileID: 7551030320648496444, guid: ef6adafd69064e747985bda96b5654fa, type: 3}
    - {fileID: 18642250695059735, guid: ef6adafd69064e747985bda96b5654fa, type: 3}
    - {fileID: 7551030320648496444, guid: ef6adafd69064e747985bda96b5654fa, type: 3}
    - {fileID: 4746231025256714944, guid: ef6adafd69064e747985bda96b5654fa, type: 3}
    - {fileID: 4746231025256714944, guid: ef6adafd69064e747985bda96b5654fa, type: 3}
    - {fileID: 7551030320648496444, guid: ef6adafd69064e747985bda96b5654fa, type: 3}
    - {fileID: 18642250695059735, guid: ef6adafd69064e747985bda96b5654fa, type: 3}
    - {fileID: 7551030320648496444, guid: ef6adafd69064e747985bda96b5654fa, type: 3}
    - {fileID: 4746231025256714944, guid: ef6adafd69064e747985bda96b5654fa, type: 3}
    - {fileID: -8313528695416656424, guid: ef6adafd69064e747985bda96b5654fa, type: 3}
    - {fileID: 2525155701506423137, guid: ef6adafd69064e747985bda96b5654fa, type: 3}
    - {fileID: 2027514658557705601, guid: ef6adafd69064e747985bda96b5654fa, type: 3}
    - {fileID: -2013832149697793222, guid: ef6adafd69064e747985bda96b5654fa, type: 3}
    - {fileID: -1748276851402542035, guid: ef6adafd69064e747985bda96b5654fa, type: 3}
    - {fileID: 2525155701506423137, guid: ef6adafd69064e747985bda96b5654fa, type: 3}
    - {fileID: 2027514658557705601, guid: ef6adafd69064e747985bda96b5654fa, type: 3}
    - {fileID: -1748276851402542035, guid: ef6adafd69064e747985bda96b5654fa, type: 3}
    - {fileID: 2525155701506423137, guid: ef6adafd69064e747985bda96b5654fa, type: 3}
    - {fileID: 2027514658557705601, guid: ef6adafd69064e747985bda96b5654fa, type: 3}
    - {fileID: -6653900151512834774, guid: ef6adafd69064e747985bda96b5654fa, type: 3}
    - {fileID: -3717876110592952622, guid: ef6adafd69064e747985bda96b5654fa, type: 3}
    - {fileID: 3819951635689494569, guid: ef6adafd69064e747985bda96b5654fa, type: 3}
    - {fileID: -9178980722481822686, guid: ef6adafd69064e747985bda96b5654fa, type: 3}
    - {fileID: -2385809584485864214, guid: ef6adafd69064e747985bda96b5654fa, type: 3}
    - {fileID: -6653900151512834774, guid: ef6adafd69064e747985bda96b5654fa, type: 3}
    - {fileID: -3717876110592952622, guid: ef6adafd69064e747985bda96b5654fa, type: 3}
    - {fileID: 3819951635689494569, guid: ef6adafd69064e747985bda96b5654fa, type: 3}
    - {fileID: -2385809584485864214, guid: ef6adafd69064e747985bda96b5654fa, type: 3}
    - {fileID: -9178980722481822686, guid: ef6adafd69064e747985bda96b5654fa, type: 3}
  m_AnimationClipSettings:
    serializedVersion: 2
    m_AdditiveReferencePoseClip: {fileID: 0}
    m_AdditiveReferencePoseTime: 0
    m_StartTime: 0
    m_StopTime: 0.76666665
    m_OrientationOffsetY: 0
    m_Level: 0
    m_CycleOffset: 0
    m_HasAdditiveReferencePose: 0
    m_LoopTime: 1
    m_LoopBlend: 0
    m_LoopBlendOrientation: 0
    m_LoopBlendPositionY: 0
    m_LoopBlendPositionXZ: 0
    m_KeepOriginalOrientation: 0
    m_KeepOriginalPositionY: 1
    m_KeepOriginalPositionXZ: 0
    m_HeightFromFeet: 0
    m_Mirror: 0
  m_EditorCurves:
  - curve:
      serializedVersion: 2
      m_Curve:
      - serializedVersion: 3
        time: 0
        value: 0
        inSlope: Infinity
        outSlope: Infinity
        tangentMode: 103
        weightedMode: 0
        inWeight: 0
        outWeight: 0
      - serializedVersion: 3
        time: 0.083333336
        value: 0
        inSlope: Infinity
        outSlope: Infinity
        tangentMode: 103
        weightedMode: 0
        inWeight: 0
        outWeight: 0
      - serializedVersion: 3
        time: 0.16666667
        value: 0
        inSlope: Infinity
        outSlope: Infinity
        tangentMode: 103
        weightedMode: 0
        inWeight: 0
        outWeight: 0
      - serializedVersion: 3
        time: 0.25
        value: 0
        inSlope: Infinity
        outSlope: Infinity
        tangentMode: 103
        weightedMode: 0
        inWeight: 0
        outWeight: 0
      - serializedVersion: 3
        time: 0.33333334
        value: 0
        inSlope: Infinity
        outSlope: Infinity
        tangentMode: 103
        weightedMode: 0
        inWeight: 0
        outWeight: 0
      - serializedVersion: 3
        time: 0.41666666
        value: 1
        inSlope: Infinity
        outSlope: Infinity
        tangentMode: 103
        weightedMode: 0
        inWeight: 0
        outWeight: 0
      - serializedVersion: 3
        time: 0.5
        value: 1
        inSlope: Infinity
        outSlope: Infinity
        tangentMode: 103
        weightedMode: 0
        inWeight: 0
        outWeight: 0
      - serializedVersion: 3
        time: 0.5833333
        value: 1
        inSlope: Infinity
        outSlope: Infinity
        tangentMode: 103
        weightedMode: 0
        inWeight: 0
        outWeight: 0
      - serializedVersion: 3
        time: 0.6666667
        value: 1
        inSlope: Infinity
        outSlope: Infinity
        tangentMode: 103
        weightedMode: 0
        inWeight: 0
        outWeight: 0
      - serializedVersion: 3
        time: 0.75
        value: 1
        inSlope: Infinity
        outSlope: Infinity
        tangentMode: 103
        weightedMode: 0
        inWeight: 0
        outWeight: 0
      m_PreInfinity: 2
      m_PostInfinity: 2
      m_RotationOrder: 4
    attribute: m_FlipX
    path: 
    classID: 212
    script: {fileID: 0}
  m_EulerEditorCurves: []
  m_HasGenericRootTransform: 0
  m_HasMotionFloatCurves: 0
  m_Events: []
