%YAML 1.1
%TAG !u! tag:unity3d.com,2011:
--- !u!74 &7400000
AnimationClip:
  m_ObjectHideFlags: 0
  m_CorrespondingSourceObject: {fileID: 0}
  m_PrefabInstance: {fileID: 0}
  m_PrefabAsset: {fileID: 0}
  m_Name: Wizard_Cast
  serializedVersion: 6
  m_Legacy: 0
  m_Compressed: 0
  m_UseHighQualityCurve: 1
  m_RotationCurves: []
  m_CompressedRotationCurves: []
  m_EulerCurves: []
  m_PositionCurves: []
  m_ScaleCurves: []
  m_FloatCurves: []
  m_PPtrCurves:
  - curve:
    - time: 0
      value: {fileID: 624815123806251179, guid: 313d2bdc10666b5499990502b6e4d419,
        type: 3}
    - time: 0.06666667
      value: {fileID: -1405395787908023367, guid: 313d2bdc10666b5499990502b6e4d419,
        type: 3}
    - time: 0.13333334
      value: {fileID: -8014617681415124358, guid: 313d2bdc10666b5499990502b6e4d419,
        type: 3}
    - time: 0.2
      value: {fileID: -8014617681415124358, guid: 313d2bdc10666b5499990502b6e4d419,
        type: 3}
    - time: 0.26666668
      value: {fileID: -1405395787908023367, guid: 313d2bdc10666b5499990502b6e4d419,
        type: 3}
    - time: 0.33333334
      value: {fileID: 624815123806251179, guid: 313d2bdc10666b5499990502b6e4d419,
        type: 3}
    - time: 0.4
      value: {fileID: 5745948991262823629, guid: 313d2bdc10666b5499990502b6e4d419,
        type: 3}
    - time: 0.45
      value: {fileID: 5957071780612060327, guid: 313d2bdc10666b5499990502b6e4d419,
        type: 3}
    - time: 0.51666665
      value: {fileID: 1897423732755097453, guid: 313d2bdc10666b5499990502b6e4d419,
        type: 3}
    - time: 0.5833333
      value: {fileID: 5745948991262823629, guid: 313d2bdc10666b5499990502b6e4d419,
        type: 3}
    attribute: m_Sprite
    path: 
    classID: 212
    script: {fileID: 0}
  - curve:
    - time: 0
      value: {fileID: -6415313948555062535, guid: 92068b7e191046647aac04ed2a9909c8,
        type: 3}
    - time: 0.06666667
      value: {fileID: -4816455731916092037, guid: 7f76eb07873f0cd4a82050c8e424030f,
        type: 3}
    - time: 0.13333334
      value: {fileID: 1914111663938174845, guid: 7f76eb07873f0cd4a82050c8e424030f,
        type: 3}
    - time: 0.2
      value: {fileID: 2678333937847254078, guid: 7f76eb07873f0cd4a82050c8e424030f,
        type: 3}
    - time: 0.26666668
      value: {fileID: -5581797769047266347, guid: 7f76eb07873f0cd4a82050c8e424030f,
        type: 3}
    - time: 0.33333334
      value: {fileID: 8659693747668007355, guid: 7f76eb07873f0cd4a82050c8e424030f,
        type: 3}
    - time: 0.4
      value: {fileID: -132684311054654911, guid: 7f76eb07873f0cd4a82050c8e424030f,
        type: 3}
    - time: 0.45
      value: {fileID: 2678333937847254078, guid: 7f76eb07873f0cd4a82050c8e424030f,
        type: 3}
    - time: 0.51666665
      value: {fileID: -4816455731916092037, guid: 7f76eb07873f0cd4a82050c8e424030f,
        type: 3}
    - time: 0.5833333
      value: {fileID: -6415313948555062535, guid: 92068b7e191046647aac04ed2a9909c8,
        type: 3}
    attribute: m_Sprite
    path: Left_hand
    classID: 212
    script: {fileID: 0}
  - curve:
    - time: 0
      value: {fileID: 3130587210946923171, guid: 92068b7e191046647aac04ed2a9909c8,
        type: 3}
    - time: 0.06666667
      value: {fileID: 210236505356797825, guid: 7f76eb07873f0cd4a82050c8e424030f,
        type: 3}
    - time: 0.13333334
      value: {fileID: 4957222601784528774, guid: 7f76eb07873f0cd4a82050c8e424030f,
        type: 3}
    - time: 0.2
      value: {fileID: -1137891032305124139, guid: 7f76eb07873f0cd4a82050c8e424030f,
        type: 3}
    - time: 0.26666668
      value: {fileID: -4887665235486528178, guid: 7f76eb07873f0cd4a82050c8e424030f,
        type: 3}
    - time: 0.33333334
      value: {fileID: -7458352105044056377, guid: 7f76eb07873f0cd4a82050c8e424030f,
        type: 3}
    - time: 0.4
      value: {fileID: 9054618027999286295, guid: 7f76eb07873f0cd4a82050c8e424030f,
        type: 3}
    - time: 0.45
      value: {fileID: -8877468849193628018, guid: 7f76eb07873f0cd4a82050c8e424030f,
        type: 3}
    - time: 0.51666665
      value: {fileID: 9054618027999286295, guid: 7f76eb07873f0cd4a82050c8e424030f,
        type: 3}
    - time: 0.5833333
      value: {fileID: 3130587210946923171, guid: 92068b7e191046647aac04ed2a9909c8,
        type: 3}
    attribute: m_Sprite
    path: Right_hand
    classID: 212
    script: {fileID: 0}
  m_SampleRate: 60
  m_WrapMode: 0
  m_Bounds:
    m_Center: {x: 0, y: 0, z: 0}
    m_Extent: {x: 0, y: 0, z: 0}
  m_ClipBindingConstant:
    genericBindings:
    - serializedVersion: 2
      path: 0
      attribute: 0
      script: {fileID: 0}
      typeID: 212
      customType: 23
      isPPtrCurve: 1
    - serializedVersion: 2
      path: 2182396387
      attribute: 0
      script: {fileID: 0}
      typeID: 212
      customType: 23
      isPPtrCurve: 1
    - serializedVersion: 2
      path: 3758762114
      attribute: 0
      script: {fileID: 0}
      typeID: 212
      customType: 23
      isPPtrCurve: 1
    pptrCurveMapping:
    - {fileID: 624815123806251179, guid: 313d2bdc10666b5499990502b6e4d419, type: 3}
    - {fileID: -1405395787908023367, guid: 313d2bdc10666b5499990502b6e4d419, type: 3}
    - {fileID: -8014617681415124358, guid: 313d2bdc10666b5499990502b6e4d419, type: 3}
    - {fileID: -8014617681415124358, guid: 313d2bdc10666b5499990502b6e4d419, type: 3}
    - {fileID: -1405395787908023367, guid: 313d2bdc10666b5499990502b6e4d419, type: 3}
    - {fileID: 624815123806251179, guid: 313d2bdc10666b5499990502b6e4d419, type: 3}
    - {fileID: 5745948991262823629, guid: 313d2bdc10666b5499990502b6e4d419, type: 3}
    - {fileID: 5957071780612060327, guid: 313d2bdc10666b5499990502b6e4d419, type: 3}
    - {fileID: 1897423732755097453, guid: 313d2bdc10666b5499990502b6e4d419, type: 3}
    - {fileID: 5745948991262823629, guid: 313d2bdc10666b5499990502b6e4d419, type: 3}
    - {fileID: -6415313948555062535, guid: 92068b7e191046647aac04ed2a9909c8, type: 3}
    - {fileID: -4816455731916092037, guid: 7f76eb07873f0cd4a82050c8e424030f, type: 3}
    - {fileID: 1914111663938174845, guid: 7f76eb07873f0cd4a82050c8e424030f, type: 3}
    - {fileID: 2678333937847254078, guid: 7f76eb07873f0cd4a82050c8e424030f, type: 3}
    - {fileID: -5581797769047266347, guid: 7f76eb07873f0cd4a82050c8e424030f, type: 3}
    - {fileID: 8659693747668007355, guid: 7f76eb07873f0cd4a82050c8e424030f, type: 3}
    - {fileID: -132684311054654911, guid: 7f76eb07873f0cd4a82050c8e424030f, type: 3}
    - {fileID: 2678333937847254078, guid: 7f76eb07873f0cd4a82050c8e424030f, type: 3}
    - {fileID: -4816455731916092037, guid: 7f76eb07873f0cd4a82050c8e424030f, type: 3}
    - {fileID: -6415313948555062535, guid: 92068b7e191046647aac04ed2a9909c8, type: 3}
    - {fileID: 3130587210946923171, guid: 92068b7e191046647aac04ed2a9909c8, type: 3}
    - {fileID: 210236505356797825, guid: 7f76eb07873f0cd4a82050c8e424030f, type: 3}
    - {fileID: 4957222601784528774, guid: 7f76eb07873f0cd4a82050c8e424030f, type: 3}
    - {fileID: -1137891032305124139, guid: 7f76eb07873f0cd4a82050c8e424030f, type: 3}
    - {fileID: -4887665235486528178, guid: 7f76eb07873f0cd4a82050c8e424030f, type: 3}
    - {fileID: -7458352105044056377, guid: 7f76eb07873f0cd4a82050c8e424030f, type: 3}
    - {fileID: 9054618027999286295, guid: 7f76eb07873f0cd4a82050c8e424030f, type: 3}
    - {fileID: -8877468849193628018, guid: 7f76eb07873f0cd4a82050c8e424030f, type: 3}
    - {fileID: 9054618027999286295, guid: 7f76eb07873f0cd4a82050c8e424030f, type: 3}
    - {fileID: 3130587210946923171, guid: 92068b7e191046647aac04ed2a9909c8, type: 3}
  m_AnimationClipSettings:
    serializedVersion: 2
    m_AdditiveReferencePoseClip: {fileID: 0}
    m_AdditiveReferencePoseTime: 0
    m_StartTime: 0
    m_StopTime: 0.59999996
    m_OrientationOffsetY: 0
    m_Level: 0
    m_CycleOffset: 0
    m_HasAdditiveReferencePose: 0
    m_LoopTime: 0
    m_LoopBlend: 0
    m_LoopBlendOrientation: 0
    m_LoopBlendPositionY: 0
    m_LoopBlendPositionXZ: 0
    m_KeepOriginalOrientation: 0
    m_KeepOriginalPositionY: 1
    m_KeepOriginalPositionXZ: 0
    m_HeightFromFeet: 0
    m_Mirror: 0
  m_EditorCurves: []
  m_EulerEditorCurves: []
  m_HasGenericRootTransform: 0
  m_HasMotionFloatCurves: 0
  m_Events: []
